<svg width="23" height="15" viewBox="0 0 23 15" fill="none" xmlns="http://www.w3.org/2000/svg">
<path d="M2 1.5H21M2 7.5H21M2 13.5H21" stroke="#5E4AC5" stroke-width="3" stroke-linecap="round"/>
</svg>
