<svg width="14" height="9" viewBox="0 0 14 9" fill="none" xmlns="http://www.w3.org/2000/svg">
<path fill-rule="evenodd" clip-rule="evenodd" d="M12.534 6.15151C12.534 6.15151 13.6126 7.21682 13.8794 7.70979C13.8846 7.7169 13.8887 7.72478 13.8915 7.73314C14.0002 7.91525 14.0269 8.058 13.9735 8.1634C13.8834 8.3375 13.5786 8.42489 13.4752 8.43223H11.5687C11.436 8.43223 11.1598 8.39754 10.8236 8.1654C10.5668 7.98596 10.3113 7.69044 10.0638 7.4016C9.69424 6.97267 9.37471 6.60045 9.05118 6.60045C9.01032 6.60036 8.96973 6.60713 8.93111 6.62046C8.68629 6.69784 8.37544 7.04672 8.37544 7.97595C8.37544 8.26679 8.14596 8.43223 7.9852 8.43223H7.112C6.81449 8.43223 5.26555 8.32816 3.89205 6.87995C2.20903 5.10688 0.697442 1.55005 0.682766 1.5187C0.588709 1.28856 0.786162 1.16315 0.999625 1.16315H2.92479C3.18295 1.16315 3.267 1.31924 3.3257 1.45933C3.39374 1.62009 3.6459 2.26315 4.05948 2.98559C4.72922 4.16097 5.14081 4.63926 5.46967 4.63926C5.53146 4.63944 5.5922 4.62333 5.64578 4.59256C6.07537 4.35642 5.99532 2.82216 5.97531 2.50596C5.97531 2.44459 5.97464 1.82088 5.75451 1.51937C5.59708 1.30323 5.32892 1.21918 5.16682 1.1885C5.21018 1.12579 5.30224 1.02973 5.42031 0.973034C5.71449 0.826278 6.24614 0.804932 6.7738 0.804932H7.06664C7.63899 0.812936 7.78708 0.849625 7.9952 0.902324C8.41413 1.00238 8.42213 1.27388 8.38544 2.19844C8.37477 2.4626 8.36343 2.76012 8.36343 3.11033C8.36343 3.18504 8.36009 3.26843 8.36009 3.35314C8.34742 3.82743 8.33074 4.36176 8.66561 4.58122C8.70904 4.60828 8.7592 4.62261 8.81037 4.62258C8.92644 4.62258 9.27398 4.62258 10.2166 3.00493C10.6301 2.2905 10.9503 1.44799 10.9723 1.38462C10.991 1.34926 11.0471 1.24987 11.1151 1.20984C11.1635 1.18409 11.2177 1.17123 11.2725 1.17249H13.5372C13.7841 1.17249 13.9515 1.20984 13.9842 1.30323C14.0389 1.45466 13.9735 1.91694 12.9395 3.31512C12.7654 3.54793 12.6127 3.74939 12.4786 3.92549C11.5414 5.15557 11.5414 5.21761 12.534 6.15151V6.15151Z" fill="#8EC2F5"/>
</svg>
