<svg width="83" height="83" viewBox="0 0 83 83" fill="none" xmlns="http://www.w3.org/2000/svg">
<g clip-path="url(#clip0)">
<path d="M76.0837 0H31.817C29.5252 0 27.667 1.85818 27.667 4.15V30.4333H30.4337V4.15C30.4337 3.38606 31.0531 2.76667 31.817 2.76667H63.6337V12.45C63.6337 13.0093 63.9707 13.5138 64.4874 13.728C65.0042 13.9421 65.5992 13.8232 65.995 13.4281L69.167 10.2561L72.3389 13.4281C72.7347 13.8232 73.3298 13.9421 73.8465 13.728C74.3633 13.5138 74.7003 13.0093 74.7003 12.45V2.76667H76.0837C76.8476 2.76667 77.467 3.38606 77.467 4.15V69.1667C77.467 69.9306 76.8476 70.55 76.0837 70.55H51.1837V73.3167H76.0837C78.3755 73.3167 80.2337 71.4585 80.2337 69.1667V4.15C80.2337 1.85818 78.3755 0 76.0837 0ZM71.9337 9.11055L70.1451 7.32194C69.6047 6.78225 68.7293 6.78225 68.1889 7.32194L66.4003 9.11055V2.76667H71.9337V9.11055Z" fill="#5E4AC5"/>
<path d="M45.0663 66.6034C45.4142 65.8854 45.7182 65.1458 45.9748 64.3899L51.3798 63.6179C52.0607 63.5206 52.5659 62.9377 52.5666 62.2501V53.9501C52.5666 53.2618 52.0607 52.6782 51.3798 52.5802L45.9748 51.8089C45.7182 51.053 45.4142 50.3134 45.0663 49.5954L48.3362 45.2353C48.7496 44.6848 48.6956 43.9142 48.2092 43.4271L42.3382 37.5574C41.8518 37.0718 41.0818 37.0171 40.5313 37.4291L36.1686 40.699C35.4506 40.3504 34.7109 40.0472 33.9551 39.7905L33.183 34.3868C33.0858 33.7067 32.5035 33.2014 31.8166 33.2001H23.5166C22.8276 33.2001 22.244 33.7067 22.1468 34.3882L21.3754 39.7918C20.6196 40.0485 19.8799 40.3518 19.1619 40.7003L14.8019 37.4305C14.2514 37.0184 13.4814 37.0731 12.995 37.5588L7.12397 43.4285C6.63831 43.9155 6.58428 44.6848 6.99698 45.2353L10.2669 49.5954C9.919 50.3134 9.61505 51.053 9.35837 51.8089L3.95338 52.5802C3.27252 52.6782 2.7666 53.2618 2.7666 53.9501V62.2501C2.7666 62.9384 3.27252 63.522 3.95338 63.6199L9.35837 64.3913C9.61505 65.1471 9.919 65.8867 10.2669 66.6047L6.99698 70.9648C6.5836 71.5153 6.63764 72.286 7.12397 72.773L12.995 78.6427C13.4814 79.1284 14.2514 79.1831 14.8019 78.771L19.1633 75.5012C19.8813 75.8497 20.6209 76.153 21.3768 76.4097L22.1488 81.8133C22.2461 82.4942 22.829 82.9994 23.5166 83.0001H31.8166C32.5056 83.0001 33.0892 82.4935 33.1864 81.8119L33.9578 76.4083C34.7136 76.1516 35.4533 75.8483 36.1713 75.4998L40.5313 78.7697C41.0818 79.1817 41.8518 79.127 42.3382 78.6414L48.2092 72.7716C48.6956 72.2846 48.7496 71.5139 48.3362 70.9635L45.0663 66.6034ZM41.2318 75.8369L37.1358 72.7635C36.7015 72.4373 36.1166 72.3961 35.6404 72.6568C34.5866 73.2316 33.4735 73.6896 32.3198 74.0219C31.799 74.1746 31.4147 74.6177 31.3377 75.1553L30.617 80.2334H24.7162L23.9928 75.158C23.9158 74.6204 23.5315 74.1773 23.01 74.0253C21.857 73.6923 20.7439 73.2343 19.6901 72.6595C19.2139 72.3988 18.629 72.44 18.1947 72.7662L14.0987 75.8369L9.92981 71.6652L13.0004 67.5693C13.3267 67.135 13.3679 66.55 13.1072 66.0738C12.5323 65.0201 12.0751 63.9063 11.7414 62.7533C11.5901 62.2325 11.147 61.8489 10.61 61.7712L5.53327 61.0505V55.1497L10.61 54.4242C11.147 54.3472 11.5901 53.9636 11.7414 53.4421C12.0751 52.2891 12.5323 51.176 13.1072 50.1223C13.3679 49.6461 13.3267 49.0611 13.0004 48.6268L9.92981 44.5308L14.1014 40.3586L18.1974 43.4299C18.6317 43.7561 19.2167 43.7973 19.6928 43.5366C20.7472 42.9624 21.8604 42.5045 23.0134 42.1708C23.5342 42.0188 23.9185 41.5757 23.9955 41.0381L24.7162 35.9667H30.617L31.3404 41.0421C31.4174 41.5798 31.8017 42.0229 32.3232 42.1749C33.4755 42.5092 34.5887 42.9665 35.6431 43.5406C36.1193 43.8014 36.7042 43.7601 37.1385 43.4339L41.2345 40.3633L45.4068 44.5349L42.3301 48.6309C42.0038 49.0652 41.9626 49.6501 42.2233 50.1263C42.7975 51.18 43.2554 52.2939 43.5884 53.4469C43.7404 53.9676 44.1828 54.3513 44.7205 54.429L49.7972 55.1537V61.0552L44.7205 61.78C44.1828 61.857 43.7404 62.2406 43.5884 62.7621C43.2554 63.9151 42.7975 65.0282 42.2233 66.0819C41.9626 66.5581 42.0038 67.1431 42.3301 67.5774L45.4007 71.6734L41.2318 75.8369Z" fill="#5E4AC5"/>
<path d="M26.2832 38.7334H29.0499V41.5001H26.2832V38.7334Z" fill="#5E4AC5"/>
<path d="M12.9961 45.3831L14.9522 43.427L16.9083 45.3831L14.9522 47.3399L12.9961 45.3831Z" fill="#5E4AC5"/>
<path d="M8.2998 56.7167H11.0665V59.4833H8.2998V56.7167Z" fill="#5E4AC5"/>
<path d="M12.9951 70.8154L14.9512 68.8586L16.9074 70.8154L14.9512 72.7716L12.9951 70.8154Z" fill="#5E4AC5"/>
<path d="M26.2832 74.7H29.0499V77.4666H26.2832V74.7Z" fill="#5E4AC5"/>
<path d="M38.4258 70.8161L40.3819 68.86L42.338 70.8161L40.3819 72.7722L38.4258 70.8161Z" fill="#5E4AC5"/>
<path d="M44.2666 56.7167H47.0333V59.4833H44.2666V56.7167Z" fill="#5E4AC5"/>
<path d="M38.4258 45.3845L40.3819 43.4277L42.3387 45.3845L40.3819 47.3407L38.4258 45.3845Z" fill="#5E4AC5"/>
<path d="M27.6663 47.0333C21.5541 47.0333 16.5996 51.9878 16.5996 58.1C16.5996 64.2122 21.5541 69.1667 27.6663 69.1667C33.7785 69.1667 38.7329 64.2122 38.7329 58.1C38.7262 51.9912 33.7751 47.0401 27.6663 47.0333ZM27.6663 66.4C23.0826 66.4 19.3663 62.6836 19.3663 58.1C19.3663 53.5163 23.0826 49.8 27.6663 49.8C32.2499 49.8 35.9663 53.5163 35.9663 58.1C35.9615 62.6823 32.2486 66.3953 27.6663 66.4Z" fill="#5E4AC5"/>
<path d="M35.9668 8.29993H44.2668V11.0666H35.9668V8.29993Z" fill="#5E4AC5"/>
<path d="M47.0332 8.29993H52.5665V11.0666H47.0332V8.29993Z" fill="#5E4AC5"/>
<path d="M35.9668 16.6H58.1001V19.3666H35.9668V16.6Z" fill="#5E4AC5"/>
<path d="M35.9668 27.6666H71.9335V30.4333H35.9668V27.6666Z" fill="#5E4AC5"/>
<path d="M55.333 35.9667H71.933V38.7333H55.333V35.9667Z" fill="#5E4AC5"/>
<path d="M55.333 44.2666H71.933V47.0333H55.333V44.2666Z" fill="#5E4AC5"/>
<path d="M55.333 52.5667H71.933V55.3333H55.333V52.5667Z" fill="#5E4AC5"/>
</g>
<defs>
<clipPath id="clip0">
<rect width="83" height="83" fill="white"/>
</clipPath>
</defs>
</svg>
