<svg width="59" height="59" viewBox="0 0 59 59" fill="none" xmlns="http://www.w3.org/2000/svg">
<path d="M54.2419 21.8871C53.2285 21.8871 52.2369 22.223 51.4127 22.8387H47.5806V0H7.6129C3.41521 0 0 3.41521 0 7.6129V52.3387C0 56.0118 2.98819 59 6.66129 59H47.5806V57.0968C44.9572 57.0968 42.8226 54.9622 42.8226 52.3387C42.8226 49.7153 44.9572 47.5806 47.5806 47.5806V30.4516H51.4127C52.2369 31.0673 53.2285 31.4032 54.2419 31.4032C56.8654 31.4032 59 29.2686 59 26.6452C59 24.0217 56.8654 21.8871 54.2419 21.8871ZM41.5713 49.4839H9.51613V51.3871H40.9956C40.951 51.6993 40.9194 52.0153 40.9194 52.3387C40.9194 52.6621 40.951 52.9781 40.9956 53.2903H36.1613V55.1935H41.5713C41.9109 55.9054 42.3658 56.5513 42.9234 57.0968H6.66129C5.11306 57.0968 3.74837 56.3422 2.87947 55.1935H34.2581V53.2903H1.99941C1.93668 52.9827 1.90323 52.664 1.90323 52.3387C1.90323 52.0135 1.93668 51.6947 1.99941 51.3871H7.6129V49.4839H2.87947C3.74837 48.3352 5.11306 47.5806 6.66129 47.5806H42.9225C42.3658 48.1261 41.9109 48.772 41.5713 49.4839ZM45.6774 45.6774H7.6129V17.129H5.70968V45.7536C4.22789 45.9669 2.90316 46.6634 1.90323 47.6861V7.6129C1.90323 5.13211 3.49513 3.02211 5.70968 2.23638V15.2258H7.6129V1.90323H45.6774V22.8387H41.871V5.70968H11.4194V26.6452H18.0806V32.3548C17.031 32.3548 16.1774 33.2084 16.1774 34.2581V36.1613C16.1774 37.2109 17.031 38.0645 18.0806 38.0645H33.3064C34.3561 38.0645 35.2097 37.2109 35.2097 36.1613V34.2581C35.2097 33.2084 34.3561 32.3548 33.3064 32.3548V30.4516H45.6774V45.6774ZM18.0806 19.0323V17.129H33.3064L33.3074 19.0323H18.0806ZM33.3064 34.2581L33.3074 36.1613H18.0806V34.2581H33.3064ZM19.9839 32.3548V20.9355H31.4032V32.3548H19.9839ZM33.3064 20.9355C34.3561 20.9355 35.2097 20.0819 35.2097 19.0323V17.129C35.2097 16.0794 34.3561 15.2258 33.3064 15.2258H18.0806C17.031 15.2258 16.1774 16.0794 16.1774 17.129V19.0323C16.1774 20.0819 17.031 20.9355 18.0806 20.9355V24.7419H13.3226V7.6129H39.9677V22.8387H33.3064V20.9355ZM54.2419 29.5C53.3758 29.5 52.749 29.1097 52.374 28.7835L52.1055 28.5484H33.3064V24.7419H52.1055L52.374 24.5068C52.749 24.1806 53.3758 23.7903 54.2419 23.7903C55.8157 23.7903 57.0968 25.0714 57.0968 26.6452C57.0968 28.2189 55.8157 29.5 54.2419 29.5Z" fill="#5E4AC5"/>
<path d="M41.871 39.9678H43.7742V41.871H41.871V39.9678Z" fill="#5E4AC5"/>
<path d="M38.0645 39.9678H39.9677V41.871H38.0645V39.9678Z" fill="#5E4AC5"/>
<path d="M17.129 39.9678H36.1613V41.871H17.129V39.9678Z" fill="#5E4AC5"/>
<path d="M13.3226 39.9678H15.2258V41.871H13.3226V39.9678Z" fill="#5E4AC5"/>
<path d="M9.51613 39.9678H11.4194V41.871H9.51613V39.9678Z" fill="#5E4AC5"/>
</svg>
