<svg width="99" height="22" viewBox="0 0 99 22" fill="none" xmlns="http://www.w3.org/2000/svg">
<path d="M8.28827 1.06108C7.72572 1.09233 7.31162 1.15484 7.04597 1.2486C6.79595 1.34235 6.62406 1.52206 6.5303 1.78771C6.43654 2.05336 6.38966 2.48308 6.38966 3.07688V14.9842C6.38966 15.4843 6.42873 15.8515 6.50686 16.0859C6.58499 16.3047 6.71781 16.4531 6.90533 16.5312C7.10848 16.6094 7.42882 16.6484 7.86636 16.6484H9.0149C10.0775 16.6484 10.9916 16.1718 11.7573 15.2186C12.5387 14.2654 13.0465 12.9997 13.2809 11.4214H13.82C13.7731 11.9527 13.7497 12.6403 13.7497 13.4841C13.7497 14.9842 13.8044 16.2187 13.9138 17.1875C12.8512 17.1407 11.062 17.1172 8.54611 17.1172C5.13955 17.1172 2.59244 17.1407 0.904785 17.1875V16.7188C1.42046 16.6875 1.79549 16.625 2.02989 16.5312C2.27991 16.4375 2.44399 16.2578 2.52212 15.9921C2.61588 15.7265 2.66276 15.2967 2.66276 14.7029V3.07688C2.66276 2.48308 2.61588 2.05336 2.52212 1.78771C2.44399 1.52206 2.27991 1.34235 2.02989 1.2486C1.79549 1.15484 1.42046 1.09233 0.904785 1.06108V0.592285C1.70173 0.639164 2.93622 0.662604 4.60825 0.662604C6.20214 0.662604 7.42882 0.639164 8.28827 0.592285V1.06108Z" fill="white"/>
<path d="M21.0471 4.7411C22.8442 4.7411 24.2505 5.25677 25.2663 6.28812C26.282 7.30383 26.7898 8.92117 26.7898 11.1401C26.7898 13.3591 26.282 14.9764 25.2663 15.9921C24.2505 17.0078 22.8442 17.5157 21.0471 17.5157C19.2657 17.5157 17.8593 17.0078 16.828 15.9921C15.8123 14.9764 15.3044 13.3591 15.3044 11.1401C15.3044 8.92117 15.8123 7.30383 16.828 6.28812C17.8593 5.25677 19.2657 4.7411 21.0471 4.7411ZM21.0471 5.20989C20.3752 5.20989 19.8361 5.70213 19.4298 6.68659C19.0391 7.65543 18.8438 9.13994 18.8438 11.1401C18.8438 13.1403 19.0391 14.6248 19.4298 15.5937C19.8361 16.5625 20.3752 17.0469 21.0471 17.0469C21.7347 17.0469 22.2738 16.5703 22.6645 15.6171C23.0551 14.6483 23.2504 13.1559 23.2504 11.1401C23.2504 9.12431 23.0473 7.63199 22.641 6.66315C22.2504 5.69431 21.7191 5.20989 21.0471 5.20989Z" fill="white"/>
<path d="M39.3635 7.31946C39.051 7.31946 38.7854 7.21789 38.5666 7.01474C38.3478 6.79597 38.2384 6.49126 38.2384 6.1006C38.2384 5.72556 38.3322 5.34272 38.5197 4.95206C38.1447 5.10832 37.8322 5.28803 37.5821 5.49117C37.3477 5.67869 37.1446 5.9209 36.9727 6.2178C37.4571 6.79597 37.6993 7.54604 37.6993 8.468C37.6993 9.70249 37.2696 10.6323 36.4102 11.2573C35.5663 11.8824 34.4412 12.1949 33.0348 12.1949H32.6129C31.9723 12.5699 31.6519 12.984 31.6519 13.4372C31.6519 13.9372 31.9644 14.1873 32.5895 14.1873H35.1444C36.5195 14.1873 37.6134 14.4451 38.426 14.9608C39.2542 15.4608 39.6683 16.2343 39.6683 17.2813C39.6683 18.0783 39.4104 18.7971 38.8948 19.4377C38.3947 20.0941 37.629 20.6175 36.5977 21.0082C35.5663 21.3989 34.3006 21.5942 32.8004 21.5942C31.2847 21.5942 30.0658 21.3989 29.1439 21.0082C28.2375 20.6332 27.7844 20.0862 27.7844 19.3674C27.7844 18.883 28.0031 18.4455 28.4407 18.0548C28.8782 17.6798 29.5267 17.3829 30.3862 17.1641L30.5971 17.5391C30.0346 18.0079 29.7533 18.547 29.7533 19.1565C29.7533 19.8128 30.0502 20.3128 30.644 20.6566C31.2378 21.016 32.0582 21.1957 33.1052 21.1957C34.199 21.1957 35.0819 20.977 35.7538 20.5394C36.4414 20.1019 36.7852 19.4846 36.7852 18.6877C36.7852 18.172 36.5899 17.7657 36.1992 17.4688C35.8242 17.1719 35.16 17.0235 34.2068 17.0235H32.7536C31.7535 17.0235 30.9722 16.8594 30.4096 16.5312C29.8471 16.1875 29.5658 15.6718 29.5658 14.9842C29.5658 14.406 29.7689 13.8904 30.1752 13.4372C30.5815 12.984 31.1987 12.5465 32.0269 12.1246C30.9018 11.9839 30.0111 11.6089 29.3548 10.9995C28.6985 10.3901 28.3704 9.54622 28.3704 8.468C28.3704 7.23351 28.7923 6.30374 29.6361 5.67869C30.4956 5.05363 31.6285 4.7411 33.0348 4.7411C34.5975 4.7411 35.7929 5.10832 36.6211 5.84276C36.918 5.42085 37.2852 5.08488 37.7228 4.83486C38.1603 4.58484 38.6057 4.45982 39.0588 4.45982C39.5276 4.45982 39.8948 4.60046 40.1605 4.88174C40.4418 5.14739 40.5824 5.49898 40.5824 5.93652C40.5824 6.37406 40.4574 6.71784 40.2074 6.96786C39.973 7.20226 39.6917 7.31946 39.3635 7.31946ZM33.0348 11.773C33.4724 11.773 33.8005 11.523 34.0193 11.0229C34.2537 10.5229 34.3709 9.67124 34.3709 8.468C34.3709 7.26477 34.2537 6.41313 34.0193 5.91308C33.8005 5.41304 33.4724 5.16301 33.0348 5.16301C32.5973 5.16301 32.2613 5.41304 32.0269 5.91308C31.8082 6.41313 31.6988 7.26477 31.6988 8.468C31.6988 9.67124 31.8082 10.5229 32.0269 11.0229C32.2613 11.523 32.5973 11.773 33.0348 11.773Z" fill="white"/>
<path d="M46.8902 4.7411C48.6873 4.7411 50.0937 5.25677 51.1094 6.28812C52.1251 7.30383 52.6329 8.92117 52.6329 11.1401C52.6329 13.3591 52.1251 14.9764 51.1094 15.9921C50.0937 17.0078 48.6873 17.5157 46.8902 17.5157C45.1088 17.5157 43.7024 17.0078 42.6711 15.9921C41.6554 14.9764 41.1475 13.3591 41.1475 11.1401C41.1475 8.92117 41.6554 7.30383 42.6711 6.28812C43.7024 5.25677 45.1088 4.7411 46.8902 4.7411ZM46.8902 5.20989C46.2183 5.20989 45.6792 5.70213 45.2729 6.68659C44.8822 7.65543 44.6869 9.13994 44.6869 11.1401C44.6869 13.1403 44.8822 14.6248 45.2729 15.5937C45.6792 16.5625 46.2183 17.0469 46.8902 17.0469C47.5778 17.0469 48.1169 16.5703 48.5076 15.6171C48.8982 14.6483 49.0936 13.1559 49.0936 11.1401C49.0936 9.12431 48.8904 7.63199 48.4841 6.66315C48.0935 5.69431 47.5622 5.20989 46.8902 5.20989Z" fill="white"/>
<path d="M58.8545 5.06925H61.6204V5.53805H58.8545V15.0077C58.8545 15.4765 58.9327 15.8124 59.0889 16.0156C59.2608 16.2031 59.5265 16.2968 59.8859 16.2968C60.5578 16.2968 61.0891 15.828 61.4798 14.8905L61.8782 15.1014C61.2844 16.7109 60.214 17.5157 58.667 17.5157C57.6357 17.5157 56.8543 17.2501 56.323 16.7188C55.9949 16.3906 55.7683 15.9843 55.6433 15.4999C55.5339 14.9998 55.4792 14.3201 55.4792 13.4606V5.53805H53.5103V5.06925H55.4792V1.97522C56.7762 1.97522 57.9013 1.7252 58.8545 1.22515V5.06925Z" fill="white"/>
<path d="M71.9939 5.13957C72.7752 5.13957 73.3768 5.11613 73.7988 5.06925V5.53805C73.4706 5.63181 73.1737 5.83495 72.9081 6.14748C72.658 6.44438 72.4158 6.91317 72.1814 7.55386L67.9857 19.344C67.6732 20.1566 67.3294 20.7113 66.9544 21.0082C66.5012 21.3989 65.8215 21.5942 64.9151 21.5942C64.2588 21.5942 63.665 21.4301 63.1337 21.102C62.618 20.7894 62.3602 20.3285 62.3602 19.719C62.3602 19.2346 62.5321 18.8439 62.8759 18.547C63.2197 18.2658 63.6728 18.1251 64.2354 18.1251C64.7667 18.1251 65.1886 18.2501 65.5011 18.5002C65.8293 18.7658 65.9934 19.133 65.9934 19.6018C65.9934 19.93 65.8918 20.2269 65.6886 20.4925C65.4855 20.7738 65.1964 20.9848 64.8214 21.1254C64.9308 21.141 65.1105 21.1488 65.3605 21.1488C66.3293 21.1488 67.0403 20.5316 67.4935 19.2971L67.8685 18.172L62.8993 6.87411C62.6493 6.34281 62.4071 5.99121 62.1727 5.81932C61.9383 5.64743 61.6961 5.56149 61.4461 5.56149V5.06925C62.4774 5.16301 63.5478 5.20989 64.6573 5.20989C65.5793 5.20989 66.6653 5.16301 67.9154 5.06925V5.56149C67.4154 5.56149 67.0403 5.60055 66.7903 5.67869C66.5559 5.74119 66.4387 5.9209 66.4387 6.2178C66.4387 6.38969 66.4934 6.60846 66.6028 6.87411L69.4624 13.7888L71.0798 9.28839C71.3298 8.55395 71.4548 7.92889 71.4548 7.41322C71.4548 6.27249 70.8766 5.64743 69.7203 5.53805V5.06925C70.4547 5.11613 71.2126 5.13957 71.9939 5.13957Z" fill="white"/>
<path d="M82.9063 4.7411C83.7189 4.7411 84.4377 4.95987 85.0628 5.39741C85.7035 5.83495 86.2035 6.49126 86.5629 7.36634C86.9223 8.24142 87.102 9.31183 87.102 10.5776C87.102 12.8121 86.6098 14.5311 85.6253 15.7343C84.6565 16.9219 83.3361 17.5157 81.664 17.5157C81.1952 17.5157 80.7499 17.4532 80.328 17.3282C79.9217 17.2032 79.5701 17.0157 79.2732 16.7656V19.1096C79.2732 19.7972 79.4451 20.2738 79.7889 20.5394C80.1326 20.8051 80.6639 20.9379 81.3828 20.9379V21.4301L80.7499 21.4067C79.0154 21.3598 77.9137 21.3364 77.4449 21.3364C76.9761 21.3364 75.9916 21.3676 74.4915 21.4301V20.9379C75.0072 20.9379 75.3666 20.8207 75.5697 20.5863C75.7885 20.3675 75.8979 19.9534 75.8979 19.344V7.62417C75.8979 6.90536 75.7807 6.38187 75.5463 6.05372C75.3275 5.72556 74.9447 5.56149 74.3978 5.56149V5.06925C74.8978 5.11613 75.3822 5.13957 75.851 5.13957C77.2105 5.13957 78.3512 5.03019 79.2732 4.81142V6.96786C79.6013 6.24905 80.0779 5.70212 80.703 5.32709C81.3281 4.93643 82.0625 4.7411 82.9063 4.7411ZM80.7499 16.8828C81.75 16.8828 82.4688 16.3906 82.9063 15.4061C83.3439 14.406 83.5626 12.9528 83.5626 11.0464C83.5626 9.13994 83.3829 7.78044 83.0235 6.96786C82.6798 6.15529 82.1797 5.749 81.5234 5.749C80.9921 5.749 80.5155 5.92871 80.0936 6.28812C79.6873 6.64752 79.4138 7.14757 79.2732 7.78825V16.25C79.6482 16.6719 80.1405 16.8828 80.7499 16.8828Z" fill="white"/>
<path d="M95.4374 15.5937C96.7187 15.5937 97.7501 14.9686 98.5314 13.7185L98.9533 13.8591C98.6408 14.8748 98.0782 15.7421 97.2657 16.4609C96.4687 17.1641 95.4686 17.5157 94.2654 17.5157C92.609 17.5157 91.2886 16.9922 90.3041 15.9452C89.3353 14.8826 88.8508 13.32 88.8508 11.2573C88.8508 9.14775 89.3743 7.53823 90.4213 6.42875C91.4683 5.30365 92.859 4.7411 94.5936 4.7411C97.5313 4.7411 99.0002 6.47563 99.0002 9.9447H92.4137C92.398 10.1791 92.3902 10.5463 92.3902 11.0464C92.3902 12.0777 92.5309 12.9372 92.8121 13.6247C93.109 14.3123 93.4841 14.8123 93.9372 15.1249C94.406 15.4374 94.9061 15.5937 95.4374 15.5937ZM94.4529 5.23333C93.8904 5.23333 93.4216 5.58493 93.0465 6.28812C92.6871 6.97568 92.4605 8.04609 92.3668 9.49935H96.0468C96.0781 8.26486 95.953 7.24914 95.6718 6.45219C95.4061 5.63962 94.9998 5.23333 94.4529 5.23333Z" fill="white"/>
</svg>
